^E:\IV\AIPD\MAPREDUCE\MAPREDUCE\MAIN.CPP
/c /I"C:\PROGRAM FILES (X86)\MICROSOFT SDKS\MPI\INCLUDE" /ZI /nologo /W3 /WX- /sdl /Od /Oy- /D WIN32 /D _DEBUG /D _CONSOLE /D _UNICODE /D UNICODE /Gm /EHsc /RTC1 /MDd /GS /fp:precise /Zc:wchar_t /Zc:forScope /Zc:inline /Fo"DEBUG\\" /Fd"DEBUG\VC140.PDB" /Gd /TP /analyze- E:\IV\AIPD\MAPREDUCE\MAPREDUCE\MAIN.CPP
^E:\IV\AIPD\MAPREDUCE\MAPREDUCE\SOURCE.CPP
/c /I"C:\PROGRAM FILES (X86)\MICROSOFT SDKS\MPI\INCLUDE" /ZI /nologo /W3 /WX- /sdl /Od /Oy- /D WIN32 /D _DEBUG /D _CONSOLE /D _UNICODE /D UNICODE /Gm /EHsc /RTC1 /MDd /GS /fp:precise /Zc:wchar_t /Zc:forScope /Zc:inline /Fo"DEBUG\\" /Fd"DEBUG\VC140.PDB" /Gd /TP /analyze- E:\IV\AIPD\MAPREDUCE\MAPREDUCE\SOURCE.CPP
^E:\IV\AIPD\MAPREDUCE\MAPREDUCE\OPERATIONS.CPP
/c /I"C:\PROGRAM FILES (X86)\MICROSOFT SDKS\MPI\INCLUDE" /ZI /nologo /W3 /WX- /sdl /Od /Oy- /D WIN32 /D _DEBUG /D _CONSOLE /D _UNICODE /D UNICODE /Gm /EHsc /RTC1 /MDd /GS /fp:precise /Zc:wchar_t /Zc:forScope /Zc:inline /Fo"DEBUG\\" /Fd"DEBUG\VC140.PDB" /Gd /TP /analyze- E:\IV\AIPD\MAPREDUCE\MAPREDUCE\OPERATIONS.CPP
